<?xml version="1.0" encoding="UTF-8" standalone="no"?>
<svg
   xmlns:dc="http://purl.org/dc/elements/1.1/"
   xmlns:cc="http://creativecommons.org/ns#"
   xmlns:rdf="http://www.w3.org/1999/02/22-rdf-syntax-ns#"
   xmlns:svg="http://www.w3.org/2000/svg"
   xmlns="http://www.w3.org/2000/svg"
   xmlns:sodipodi="http://sodipodi.sourceforge.net/DTD/sodipodi-0.dtd"
   xmlns:inkscape="http://www.inkscape.org/namespaces/inkscape"
   width="96.795837mm"
   height="47.158875mm"
   viewBox="0 0 96.795837 47.158875"
   version="1.1"
   id="svg1094"
   inkscape:version="1.0.1 (1.0.1+r74)"
   sodipodi:docname="logo_complete.svg"
   inkscape:export-filename="/media/allapow/SAN250/Bitkorn/02_Kunden/2013-12-02_Gomolzig/zeug/Logo/2020-12-15_Quick-CI/take-me/png/logo_complete_100h.png"
   inkscape:export-xdpi="53.860489"
   inkscape:export-ydpi="53.860489">
  <defs
     id="defs1088">
    <clipPath
       clipPathUnits="userSpaceOnUse"
       id="clipPath18">
      <path
         d="M 0,0 H 566.929 V 566.929 H 0 Z"
         id="path16" />
    </clipPath>
  </defs>
  <sodipodi:namedview
     id="base"
     pagecolor="#ffffff"
     bordercolor="#666666"
     borderopacity="1.0"
     inkscape:pageopacity="0.0"
     inkscape:pageshadow="2"
     inkscape:zoom="2.8"
     inkscape:cx="211.63871"
     inkscape:cy="114.56382"
     inkscape:document-units="mm"
     inkscape:current-layer="layer1"
     inkscape:document-rotation="0"
     showgrid="false"
     fit-margin-top="0"
     fit-margin-left="0"
     fit-margin-right="0"
     fit-margin-bottom="0"
     inkscape:window-width="1920"
     inkscape:window-height="1021"
     inkscape:window-x="0"
     inkscape:window-y="25"
     inkscape:window-maximized="1" />
  <metadata
     id="metadata1091">
    <rdf:RDF>
      <cc:Work
         rdf:about="">
        <dc:format>image/svg+xml</dc:format>
        <dc:type
           rdf:resource="http://purl.org/dc/dcmitype/StillImage" />
        <dc:title />
      </cc:Work>
    </rdf:RDF>
  </metadata>
  <g
     inkscape:label="Ebene 1"
     inkscape:groupmode="layer"
     id="layer1"
     transform="translate(-53.655654,-86.033657)">
    <g
       id="g1440">
      <g
         id="g12"
         transform="matrix(0.35277777,0,0,-0.35277777,3.1100785,277.03368)">
        <g
           id="g14"
           clip-path="url(#clipPath18)">
          <g
             id="g20"
             transform="translate(305.7505,486.0589)">
            <path
               d="M 0,0 V 0 H -11.465 V -5.74 H -4.2 c -2.522,-9.281 -11.002,-16.108 -21.081,-16.108 -12.066,0 -21.848,9.782 -21.848,21.848 0,12.066 9.782,21.848 21.848,21.848 10.079,0 18.559,-6.827 21.081,-16.108 h 5.905 c -2.642,12.481 -13.718,21.848 -26.986,21.848 -15.236,0 -27.588,-12.352 -27.588,-27.588 0,-15.237 12.352,-27.588 27.588,-27.588 15.237,0 27.588,12.351 27.588,27.588 z"
               style="fill:#f0402c;fill-opacity:1;fill-rule:nonzero;stroke:none"
               id="path22" />
          </g>
          <g
             id="g24"
             transform="translate(225.1719,436.8054)">
            <path
               d="m 0,0 c -1.425,-0.283 -1.554,-0.496 -1.554,-1.9 v -2.09 c 0,-0.905 0.029,-1.717 0.213,-2.345 -1.466,-0.31 -3.696,-0.876 -5.512,-0.876 -5.383,0 -8.699,3.248 -8.699,8.309 0,5.62 4.348,8.388 9.143,8.388 2.37,0 4.03,-0.479 4.638,-0.508 0.049,-0.86 0.159,-2.562 0.332,-3.69 L -1.793,5.194 c -0.461,1.749 -1.093,2.908 -2.822,3.409 -0.649,0.19 -1.461,0.308 -2.42,0.308 -3.891,0 -6.159,-2.734 -6.159,-7.46 0,-3.953 1.727,-8.092 6.615,-8.092 0.78,0 1.72,0.119 2.228,0.414 0.531,0.301 0.796,0.637 0.796,1.907 v 2.161 c 0,1.715 -0.14,1.9 -2.268,2.159 V 0.353 H 0 Z"
               style="fill:#f0402c;fill-opacity:1;fill-rule:nonzero;stroke:none"
               id="path26" />
          </g>
          <g
             id="g28"
             transform="translate(237.8746,446.2909)">
            <path
               d="m 0,0 c 4.171,0 7.81,-3.337 7.81,-8.128 0,-5.159 -3.574,-8.569 -7.985,-8.569 -4.407,0 -7.861,3.568 -7.861,8.137 C -8.036,-4.153 -4.988,0 0,0 m -0.472,-0.554 c -2.773,0 -5.198,-2.531 -5.198,-7.319 0,-4.78 2.394,-8.249 6.014,-8.249 2.822,0 5.099,2.504 5.099,7.254 0,5.28 -2.466,8.314 -5.915,8.314"
               style="fill:#f0402c;fill-opacity:1;fill-rule:nonzero;stroke:none"
               id="path30" />
          </g>
          <g
             id="g32"
             transform="translate(263.4685,429.963)">
            <path
               d="M 0,0 V 0.313 C 1.912,0.657 1.974,0.87 1.999,3.31 L 2.072,14.116 C 0.003,9.663 -3.926,1.077 -4.34,0 H -4.608 C -4.91,0.833 -7.694,7.56 -10.357,13.824 -10.68,4.791 -10.669,3.256 -10.665,2.283 c 0.01,-1.324 0.389,-1.716 2.263,-1.97 V 0 h -5.416 v 0.313 c 1.7,0.226 2.025,0.664 2.152,1.941 0.103,0.993 0.181,2.381 0.671,11.555 0.045,0.953 -0.076,1.62 -2.272,1.862 v 0.313 h 4.002 L -3.688,3.373 2.33,15.984 H 6.251 V 15.671 C 4.13,15.343 3.958,15.11 3.962,12.839 L 4.02,3.31 C 4.045,0.831 4.244,0.641 6.251,0.313 V 0 Z"
               style="fill:#f0402c;fill-opacity:1;fill-rule:nonzero;stroke:none"
               id="path34" />
          </g>
          <g
             id="g36"
             transform="translate(281.9014,446.2909)">
            <path
               d="m 0,0 c 4.172,0 7.81,-3.337 7.81,-8.128 0,-5.159 -3.574,-8.569 -7.984,-8.569 -4.408,0 -7.862,3.568 -7.862,8.137 C -8.036,-4.153 -4.987,0 0,0 m -0.472,-0.554 c -2.773,0 -5.197,-2.531 -5.197,-7.319 0,-4.78 2.394,-8.249 6.014,-8.249 2.822,0 5.099,2.504 5.099,7.254 0,5.28 -2.467,8.314 -5.916,8.314"
               style="fill:#f0402c;fill-opacity:1;fill-rule:nonzero;stroke:none"
               id="path38" />
          </g>
          <g
             id="g40"
             transform="translate(305.8187,433.7294)">
            <path
               d="m 0,0 c -0.14,-0.768 -0.663,-2.974 -0.912,-3.766 h -11.026 v 0.313 c 2.184,0.299 2.307,0.496 2.307,2.53 V 9.435 c 0,2.047 -0.212,2.21 -2.122,2.47 v 0.313 h 6.099 V 11.905 C -7.478,11.581 -7.65,11.469 -7.65,9.435 V -1.312 c 0,-1.71 0.317,-1.797 1.889,-1.797 0.458,0 1.208,0.02 1.617,0.02 1.429,0 1.975,0.055 2.614,0.928 0.436,0.592 0.82,1.312 1.182,2.26 z"
               style="fill:#f0402c;fill-opacity:1;fill-rule:nonzero;stroke:none"
               id="path42" />
          </g>
          <g
             id="g44"
             transform="translate(322.7971,433.7452)">
            <path
               d="m 0,0 c -0.177,-0.821 -0.644,-2.586 -0.89,-3.782 h -12.227 l -0.111,0.242 c 3.342,5.002 6.724,10.066 10.036,15.085 H -8.68 c -1.719,0 -2.123,-0.316 -2.633,-1.279 -0.22,-0.416 -0.444,-0.937 -0.695,-1.616 h -0.403 c 0.128,1.135 0.374,3.201 0.428,4.153 h 0.319 c 0.277,-0.557 0.62,-0.601 1.585,-0.601 h 9.38 l 0.093,-0.222 c -3.305,-4.962 -6.736,-10.103 -9.88,-15.06 0.574,-0.025 2.133,-0.045 4.07,-0.045 3.554,0 4.048,0.168 4.765,0.988 0.481,0.548 0.927,1.411 1.273,2.215 z"
               style="fill:#f0402c;fill-opacity:1;fill-rule:nonzero;stroke:none"
               id="path46" />
          </g>
          <g
             id="g48"
             transform="translate(326.4232,429.963)">
            <path
               d="m 0,0 v 0.313 c 1.925,0.34 2.108,0.552 2.108,2.517 v 10.308 c 0,2.086 -0.172,2.222 -2.108,2.533 v 0.313 H 6.222 V 15.671 C 4.266,15.392 4.089,15.228 4.089,13.138 V 2.834 c 0,-1.958 0.167,-2.161 2.133,-2.521 V 0 Z"
               style="fill:#f0402c;fill-opacity:1;fill-rule:nonzero;stroke:none"
               id="path50" />
          </g>
          <g
             id="g52"
             transform="translate(352.5551,436.8054)">
            <path
               d="m 0,0 c -1.424,-0.283 -1.554,-0.496 -1.554,-1.9 v -2.09 c 0,-0.905 0.029,-1.717 0.213,-2.345 -1.466,-0.31 -3.695,-0.876 -5.512,-0.876 -5.383,0 -8.699,3.248 -8.699,8.309 0,5.62 4.349,8.388 9.143,8.388 2.37,0 4.031,-0.479 4.639,-0.508 0.049,-0.86 0.159,-2.562 0.331,-3.69 L -1.792,5.194 c -0.461,1.749 -1.093,2.908 -2.822,3.409 -0.65,0.19 -1.461,0.308 -2.421,0.308 -3.891,0 -6.158,-2.734 -6.158,-7.46 0,-3.953 1.727,-8.092 6.615,-8.092 0.779,0 1.72,0.119 2.228,0.414 0.53,0.301 0.796,0.637 0.796,1.907 v 2.161 c 0,1.715 -0.14,1.9 -2.269,2.159 V 0.353 H 0 Z"
               style="fill:#f0402c;fill-opacity:1;fill-rule:nonzero;stroke:none"
               id="path54" />
          </g>
          <g
             id="g56"
             transform="translate(256.8198,419.0204)">
            <path
               d="M 0,0 V 0.114 C 0.504,0.219 0.551,0.297 0.426,0.662 0.329,0.949 0.173,1.416 -0.017,1.931 h -1.49 C -1.654,1.52 -1.788,1.149 -1.891,0.833 -2.069,0.303 -1.987,0.237 -1.333,0.114 V 0 h -1.684 v 0.114 c 0.491,0.084 0.604,0.17 0.885,0.884 l 1.631,4.184 0.177,0.026 C 0.169,3.802 0.68,2.408 1.202,1.001 1.466,0.271 1.551,0.22 2.036,0.114 V 0 Z M -0.742,4.027 C -0.989,3.369 -1.189,2.782 -1.417,2.174 h 1.314 z"
               style="fill:#918f90;fill-opacity:1;fill-rule:nonzero;stroke:none"
               id="path58" />
          </g>
          <g
             id="g60"
             transform="translate(259.2111,419.0204)">
            <path
               d="M 0,0 V 0.114 C 0.442,0.188 0.463,0.228 0.463,0.82 v 1.586 c 0,0.483 -0.026,0.518 -0.381,0.617 V 3.122 C 0.493,3.18 0.891,3.274 1.24,3.414 1.233,3.251 1.225,2.797 1.225,2.474 V 0.822 C 1.225,0.24 1.267,0.198 1.704,0.114 V 0 Z m 0.791,4.205 c -0.227,0 -0.423,0.191 -0.423,0.439 0,0.26 0.196,0.44 0.431,0.44 0.252,0 0.438,-0.18 0.438,-0.44 0,-0.248 -0.186,-0.439 -0.446,-0.439"
               style="fill:#918f90;fill-opacity:1;fill-rule:nonzero;stroke:none"
               id="path62" />
          </g>
          <g
             id="g64"
             transform="translate(263.2312,419.0204)">
            <path
               d="m 0,0 h -1.748 v 0.114 c 0.421,0.071 0.447,0.106 0.447,0.68 v 1.643 c 0,0.442 -0.041,0.489 -0.371,0.583 v 0.094 c 0.39,0.056 0.791,0.153 1.156,0.315 C -0.524,3.297 -0.533,2.88 -0.539,2.595 -0.345,2.946 0.005,3.408 0.382,3.408 0.63,3.408 0.808,3.25 0.808,3.04 0.808,2.853 0.646,2.598 0.484,2.53 0.39,2.485 0.342,2.501 0.293,2.55 0.159,2.679 0.075,2.772 -0.066,2.772 -0.198,2.772 -0.38,2.671 -0.539,2.354 v -1.56 c 0,-0.569 0.055,-0.593 0.539,-0.68 z"
               style="fill:#918f90;fill-opacity:1;fill-rule:nonzero;stroke:none"
               id="path66" />
          </g>
          <g
             id="g68"
             transform="translate(267.3483,419.7458)">
            <path
               d="m 0,0 c -0.336,-0.451 -0.819,-0.82 -1.279,-0.82 -0.982,0 -1.535,0.785 -1.535,1.588 0,0.58 0.256,1.07 0.758,1.454 0.447,0.335 0.913,0.461 1.195,0.461 0.24,0 0.5,-0.072 0.644,-0.185 0.083,-0.07 0.128,-0.125 0.128,-0.208 0,-0.165 -0.181,-0.364 -0.295,-0.364 -0.032,0 -0.066,0.011 -0.145,0.082 -0.26,0.242 -0.553,0.347 -0.819,0.347 -0.384,0 -0.732,-0.235 -0.735,-1.148 -0.003,-1.072 0.678,-1.477 1.129,-1.477 0.336,0 0.585,0.077 0.883,0.358 z"
               style="fill:#918f90;fill-opacity:1;fill-rule:nonzero;stroke:none"
               id="path70" />
          </g>
          <g
             id="g72"
             transform="translate(269.6541,419.0204)">
            <path
               d="m 0,0 h -1.749 v 0.114 c 0.421,0.071 0.447,0.106 0.447,0.68 v 1.643 c 0,0.442 -0.04,0.489 -0.37,0.583 v 0.094 c 0.39,0.056 0.791,0.153 1.156,0.315 C -0.524,3.297 -0.534,2.88 -0.54,2.595 -0.346,2.946 0.005,3.408 0.381,3.408 0.63,3.408 0.808,3.25 0.808,3.04 0.808,2.853 0.645,2.598 0.483,2.53 0.389,2.485 0.342,2.501 0.292,2.55 0.159,2.679 0.075,2.772 -0.067,2.772 -0.199,2.772 -0.381,2.671 -0.54,2.354 v -1.56 c 0,-0.569 0.055,-0.593 0.54,-0.68 z"
               style="fill:#918f90;fill-opacity:1;fill-rule:nonzero;stroke:none"
               id="path74" />
          </g>
          <g
             id="g76"
             transform="translate(273.3475,418.9263)">
            <path
               d="M 0,0 C -0.166,0 -0.303,0.052 -0.41,0.157 -0.494,0.243 -0.557,0.353 -0.589,0.505 -0.851,0.306 -1.256,0 -1.41,0 c -0.548,0 -0.912,0.463 -0.912,0.911 0,0.364 0.178,0.561 0.538,0.687 0.424,0.155 0.993,0.307 1.188,0.449 v 0.384 c 0,0.516 -0.291,0.793 -0.588,0.793 -0.141,0 -0.25,-0.057 -0.33,-0.162 C -1.58,2.978 -1.641,2.811 -1.706,2.551 -1.743,2.411 -1.809,2.369 -1.892,2.369 c -0.202,0 -0.362,0.174 -0.362,0.332 0,0.078 0.065,0.161 0.214,0.263 0.328,0.219 0.843,0.478 1.149,0.538 0.292,0 0.492,-0.091 0.657,-0.209 0.3,-0.246 0.379,-0.542 0.379,-1.001 V 0.919 c 0,-0.341 0.121,-0.457 0.265,-0.457 0.071,0 0.142,0.014 0.203,0.048 L 0.655,0.393 Z M -0.596,1.89 C -0.72,1.819 -0.945,1.738 -1.126,1.646 -1.407,1.503 -1.559,1.358 -1.559,1.08 c 0,-0.416 0.258,-0.605 0.502,-0.605 0.137,0 0.306,0.037 0.451,0.175 0,0.429 0.01,0.8 0.01,1.24"
               style="fill:#918f90;fill-opacity:1;fill-rule:nonzero;stroke:none"
               id="path78" />
          </g>
          <g
             id="g80"
             transform="translate(275.7255,422.1142)">
            <path
               d="M 0,0 V -2.267 C 0,-2.84 0.05,-2.901 0.569,-2.979 v -0.115 h -1.817 v 0.115 c 0.442,0.065 0.486,0.125 0.486,0.674 v 2.292 h -0.493 l -0.023,0.049 0.122,0.184 h 0.394 v 0.111 c 0,0.428 0.065,0.706 0.118,0.866 0.052,0.173 0.246,0.609 0.705,0.976 C 0.315,2.365 0.564,2.504 0.869,2.542 1.16,2.535 1.312,2.458 1.425,2.35 1.521,2.259 1.521,2.131 1.469,2.027 1.443,1.959 1.373,1.866 1.285,1.808 1.199,1.746 1.134,1.755 1.073,1.813 0.867,2.024 0.655,2.178 0.418,2.178 0.292,2.178 0.212,2.108 0.148,1.977 0.045,1.802 0,1.37 0,0.616 V 0.22 H 1.21 V 0.9 C 1.433,1.034 1.717,1.256 1.917,1.436 L 1.992,1.428 C 1.984,1.225 1.964,0.726 1.969,0.22 H 2.747 C 2.773,0.175 2.752,0.042 2.709,-0.013 h -0.74 v -2.071 c 0,-0.604 0.256,-0.722 0.467,-0.722 0.166,0 0.27,0.042 0.4,0.102 l 0.037,-0.12 -0.574,-0.28 C 2.192,-3.16 2.074,-3.188 2.02,-3.188 c -0.492,0 -0.81,0.283 -0.81,0.917 V 0 Z"
               style="fill:#918f90;fill-opacity:1;fill-rule:nonzero;stroke:none"
               id="path82" />
          </g>
          <g
             id="g84"
             transform="translate(283.5453,423.0385)">
            <path
               d="m 0,0 c -0.156,0.617 -0.485,1.03 -1.129,1.03 -0.514,0 -0.781,-0.364 -0.781,-0.854 0,-0.534 0.298,-0.773 0.952,-1.16 0.649,-0.385 1.285,-0.798 1.285,-1.633 0,-0.877 -0.738,-1.519 -1.74,-1.519 -0.406,0 -0.8,0.098 -1.164,0.202 -0.047,0.171 -0.165,1.017 -0.176,1.151 l 0.121,0.025 c 0.159,-0.613 0.585,-1.202 1.339,-1.202 0.587,0 0.84,0.424 0.84,0.951 0,0.534 -0.333,0.88 -0.889,1.218 -0.667,0.408 -1.265,0.801 -1.265,1.601 0,0.785 0.626,1.395 1.616,1.395 0.481,0 0.815,-0.094 0.983,-0.111 C 0.024,0.809 0.068,0.399 0.123,0.023 Z"
               style="fill:#918f90;fill-opacity:1;fill-rule:nonzero;stroke:none"
               id="path86" />
          </g>
          <g
             id="g88"
             transform="translate(287.5501,419.7574)">
            <path
               d="m 0,0 c -0.467,-0.638 -1.029,-0.831 -1.29,-0.831 -0.964,0 -1.53,0.778 -1.53,1.636 0,0.547 0.204,1.01 0.528,1.354 0.338,0.355 0.739,0.512 1.109,0.512 0.72,0 1.178,-0.549 1.183,-1.123 C 0,1.425 -0.008,1.369 -0.039,1.361 -0.256,1.311 -1.227,1.249 -2.076,1.223 c -0.003,-1.069 0.596,-1.509 1.145,-1.509 0.275,0 0.567,0.084 0.863,0.375 z m -1.403,2.464 c -0.324,0 -0.594,-0.307 -0.655,-1.021 0.37,-0.006 0.88,-0.003 1.14,0.023 0.091,0.009 0.142,0.027 0.142,0.116 0,0.442 -0.228,0.882 -0.627,0.882"
               style="fill:#918f90;fill-opacity:1;fill-rule:nonzero;stroke:none"
               id="path90" />
          </g>
          <g
             id="g92"
             transform="translate(289.9838,419.0204)">
            <path
               d="m 0,0 h -1.749 v 0.114 c 0.421,0.071 0.447,0.106 0.447,0.68 v 1.643 c 0,0.442 -0.04,0.489 -0.37,0.583 v 0.094 c 0.39,0.056 0.791,0.153 1.156,0.315 C -0.524,3.297 -0.534,2.88 -0.54,2.595 -0.346,2.946 0.005,3.408 0.381,3.408 0.63,3.408 0.808,3.25 0.808,3.04 0.808,2.853 0.645,2.598 0.483,2.53 0.389,2.485 0.342,2.501 0.292,2.55 0.159,2.679 0.075,2.772 -0.067,2.772 -0.199,2.772 -0.381,2.671 -0.54,2.354 v -1.56 c 0,-0.569 0.055,-0.593 0.54,-0.68 z"
               style="fill:#918f90;fill-opacity:1;fill-rule:nonzero;stroke:none"
               id="path94" />
          </g>
          <g
             id="g96"
             transform="translate(294.881,422.2247)">
            <path
               d="m 0,0 c -0.401,-0.089 -0.459,-0.184 -0.648,-0.619 -0.257,-0.586 -0.735,-1.77 -1.098,-2.695 H -1.889 C -2.22,-2.44 -2.588,-1.456 -2.946,-0.579 -3.134,-0.132 -3.168,-0.086 -3.531,0 v 0.11 h 1.664 V 0 c -0.388,-0.092 -0.422,-0.153 -0.309,-0.472 0.209,-0.575 0.468,-1.272 0.653,-1.766 0.217,0.54 0.482,1.244 0.653,1.715 0.125,0.356 0.07,0.441 -0.425,0.523 V 0.11 H 0 Z"
               style="fill:#918f90;fill-opacity:1;fill-rule:nonzero;stroke:none"
               id="path98" />
          </g>
          <g
             id="g100"
             transform="translate(295.3373,419.0204)">
            <path
               d="M 0,0 V 0.114 C 0.442,0.188 0.463,0.228 0.463,0.82 v 1.586 c 0,0.483 -0.027,0.518 -0.382,0.617 V 3.122 C 0.493,3.18 0.89,3.274 1.24,3.414 1.233,3.251 1.225,2.797 1.225,2.474 V 0.822 C 1.225,0.24 1.266,0.198 1.703,0.114 V 0 Z m 0.791,4.205 c -0.227,0 -0.423,0.191 -0.423,0.439 0,0.26 0.196,0.44 0.43,0.44 0.253,0 0.438,-0.18 0.438,-0.44 0,-0.248 -0.185,-0.439 -0.445,-0.439"
               style="fill:#918f90;fill-opacity:1;fill-rule:nonzero;stroke:none"
               id="path102" />
          </g>
          <g
             id="g104"
             transform="translate(300.4834,419.7458)">
            <path
               d="m 0,0 c -0.336,-0.451 -0.819,-0.82 -1.279,-0.82 -0.982,0 -1.535,0.785 -1.535,1.588 0,0.58 0.256,1.07 0.758,1.454 0.447,0.335 0.913,0.461 1.195,0.461 0.24,0 0.5,-0.072 0.644,-0.185 0.083,-0.07 0.128,-0.125 0.128,-0.208 0,-0.165 -0.181,-0.364 -0.295,-0.364 -0.032,0 -0.066,0.011 -0.144,0.082 -0.261,0.242 -0.554,0.347 -0.82,0.347 -0.384,0 -0.732,-0.235 -0.735,-1.148 -0.003,-1.072 0.678,-1.477 1.129,-1.477 0.336,0 0.585,0.077 0.883,0.358 z"
               style="fill:#918f90;fill-opacity:1;fill-rule:nonzero;stroke:none"
               id="path106" />
          </g>
          <g
             id="g108"
             transform="translate(303.9288,419.7574)">
            <path
               d="m 0,0 c -0.467,-0.638 -1.029,-0.831 -1.29,-0.831 -0.964,0 -1.53,0.778 -1.53,1.636 0,0.547 0.204,1.01 0.528,1.354 0.338,0.355 0.739,0.512 1.109,0.512 0.72,0 1.178,-0.549 1.183,-1.123 C 0,1.425 -0.008,1.369 -0.039,1.361 -0.255,1.311 -1.227,1.249 -2.076,1.223 c -0.003,-1.069 0.596,-1.509 1.145,-1.509 0.275,0 0.567,0.084 0.863,0.375 z m -1.403,2.464 c -0.324,0 -0.594,-0.307 -0.655,-1.021 0.37,-0.006 0.88,-0.003 1.14,0.023 0.091,0.009 0.142,0.027 0.142,0.116 0,0.442 -0.228,0.882 -0.627,0.882"
               style="fill:#918f90;fill-opacity:1;fill-rule:nonzero;stroke:none"
               id="path110" />
          </g>
          <g
             id="g112"
             transform="translate(306.6854,421.4878)">
            <path
               d="m 0,0 c -0.152,0.484 -0.415,0.778 -0.823,0.778 -0.271,0 -0.468,-0.181 -0.468,-0.494 0,-0.355 0.249,-0.51 0.592,-0.696 0.556,-0.296 0.934,-0.542 0.934,-1.073 0,-0.714 -0.659,-1.076 -1.246,-1.076 -0.374,0 -0.685,0.103 -0.84,0.159 -0.024,0.146 -0.092,0.614 -0.126,0.882 l 0.1,0.024 c 0.156,-0.493 0.486,-0.903 0.98,-0.903 0.31,0 0.494,0.207 0.494,0.502 0,0.291 -0.13,0.498 -0.597,0.766 -0.365,0.209 -0.886,0.491 -0.889,1.069 -0.003,0.581 0.466,0.998 1.18,1.003 0.317,0 0.58,-0.076 0.721,-0.084 0.014,-0.227 0.07,-0.695 0.096,-0.83 z"
               style="fill:#918f90;fill-opacity:1;fill-rule:nonzero;stroke:none"
               id="path114" />
          </g>
          <g
             id="g116"
             transform="translate(225.0211,409.7669)">
            <path
               d="M 0,0 V 0.115 C 0.504,0.219 0.55,0.298 0.426,0.663 0.329,0.949 0.172,1.416 -0.017,1.931 h -1.49 C -1.655,1.52 -1.788,1.149 -1.891,0.833 -2.07,0.304 -1.987,0.238 -1.333,0.115 V 0 h -1.685 v 0.115 c 0.492,0.084 0.605,0.169 0.886,0.883 l 1.631,4.185 0.176,0.026 C 0.168,3.802 0.68,2.409 1.202,1.002 1.466,0.271 1.55,0.22 2.036,0.115 V 0 Z M -0.743,4.028 C -0.989,3.37 -1.19,2.782 -1.418,2.175 h 1.314 z"
               style="fill:#918f90;fill-opacity:1;fill-rule:nonzero;stroke:none"
               id="path118" />
          </g>
          <g
             id="g120"
             transform="translate(232.0311,411.0006)">
            <path
               d="m 0,0 c -0.076,-0.306 -0.279,-0.948 -0.391,-1.17 -0.2,-0.045 -0.797,-0.182 -1.326,-0.182 -2.002,0 -2.879,1.278 -2.879,2.654 0,1.588 1.163,2.688 2.987,2.688 0.629,0 1.17,-0.139 1.381,-0.16 0.024,-0.387 0.071,-0.851 0.113,-1.173 L -0.251,2.628 c -0.152,0.531 -0.321,0.846 -0.762,1.037 -0.226,0.099 -0.495,0.139 -0.807,0.139 -1.254,0 -1.813,-1.076 -1.813,-2.355 0,-1.535 0.736,-2.61 1.983,-2.61 0.783,0 1.184,0.463 1.524,1.206 z"
               style="fill:#918f90;fill-opacity:1;fill-rule:nonzero;stroke:none"
               id="path122" />
          </g>
          <g
             id="g124"
             transform="translate(237.4702,411.0006)">
            <path
               d="m 0,0 c -0.076,-0.306 -0.279,-0.948 -0.392,-1.17 -0.199,-0.045 -0.797,-0.182 -1.326,-0.182 -2.001,0 -2.878,1.278 -2.878,2.654 0,1.588 1.162,2.688 2.987,2.688 0.629,0 1.17,-0.139 1.38,-0.16 0.024,-0.387 0.071,-0.851 0.114,-1.173 L -0.252,2.628 c -0.152,0.531 -0.321,0.846 -0.761,1.037 -0.226,0.099 -0.495,0.139 -0.807,0.139 -1.255,0 -1.813,-1.076 -1.813,-2.355 0,-1.535 0.735,-2.61 1.982,-2.61 0.784,0 1.184,0.463 1.525,1.206 z"
               style="fill:#918f90;fill-opacity:1;fill-rule:nonzero;stroke:none"
               id="path126" />
          </g>
          <g
             id="g128"
             transform="translate(244.5062,411.0006)">
            <path
               d="m 0,0 c -0.076,-0.306 -0.279,-0.948 -0.391,-1.17 -0.2,-0.045 -0.797,-0.182 -1.326,-0.182 -2.002,0 -2.879,1.278 -2.879,2.654 0,1.588 1.163,2.688 2.987,2.688 0.629,0 1.17,-0.139 1.381,-0.16 0.024,-0.387 0.071,-0.851 0.113,-1.173 L -0.251,2.628 c -0.152,0.531 -0.321,0.846 -0.762,1.037 -0.225,0.099 -0.495,0.139 -0.807,0.139 -1.254,0 -1.813,-1.076 -1.813,-2.355 0,-1.535 0.736,-2.61 1.983,-2.61 0.783,0 1.184,0.463 1.524,1.206 z"
               style="fill:#918f90;fill-opacity:1;fill-rule:nonzero;stroke:none"
               id="path130" />
          </g>
          <g
             id="g132"
             transform="translate(247.9573,414.9908)">
            <path
               d="m 0,0 c 1.367,0 2.532,-1.083 2.532,-2.611 0,-1.647 -1.151,-2.731 -2.57,-2.731 -1.476,0 -2.57,1.163 -2.57,2.622 C -2.608,-1.347 -1.632,0 0,0 m -0.155,-0.188 c -0.82,0 -1.485,-0.788 -1.485,-2.335 0,-1.495 0.669,-2.628 1.749,-2.628 0.837,0 1.454,0.798 1.454,2.321 0,1.664 -0.693,2.642 -1.718,2.642"
               style="fill:#918f90;fill-opacity:1;fill-rule:nonzero;stroke:none"
               id="path134" />
          </g>
          <g
             id="g136"
             transform="translate(255.1768,411.016)">
            <path
               d="m 0,0 c -0.06,-0.312 -0.253,-1.073 -0.314,-1.249 h -3.638 v 0.115 c 0.695,0.099 0.734,0.163 0.734,0.828 v 3.235 c 0,0.682 -0.06,0.727 -0.664,0.821 v 0.114 h 2.136 V 3.75 C -2.333,3.642 -2.389,3.595 -2.389,2.929 v -3.396 c 0,-0.518 0.121,-0.557 0.561,-0.557 0.139,0 0.368,0.003 0.492,0.003 0.438,0 0.575,0.044 0.78,0.271 0.154,0.171 0.31,0.468 0.441,0.782 z"
               style="fill:#918f90;fill-opacity:1;fill-rule:nonzero;stroke:none"
               id="path138" />
          </g>
          <g
             id="g140"
             transform="translate(260.6254,414.766)">
            <path
               d="m 0,0 c -0.599,-0.08 -0.61,-0.267 -0.634,-0.62 -0.014,-0.219 -0.032,-0.496 -0.032,-1.125 v -0.972 c 0,-0.794 -0.073,-1.413 -0.514,-1.881 -0.344,-0.36 -0.824,-0.519 -1.418,-0.519 -0.497,0 -0.985,0.113 -1.334,0.4 -0.448,0.366 -0.602,0.856 -0.602,1.705 v 2.072 c 0,0.767 -0.048,0.842 -0.635,0.94 v 0.114 h 2.094 V 0 c -0.598,-0.11 -0.633,-0.173 -0.633,-0.94 v -2.1 c 0,-1.094 0.477,-1.678 1.439,-1.678 1.042,0 1.35,0.595 1.35,1.985 v 0.99 c 0,0.627 -0.014,0.911 -0.034,1.152 C -0.982,-0.2 -1.066,-0.063 -1.741,0 V 0.114 H 0 Z"
               style="fill:#918f90;fill-opacity:1;fill-rule:nonzero;stroke:none"
               id="path142" />
          </g>
          <g
             id="g144"
             transform="translate(265.3209,409.7669)">
            <path
               d="m 0,0 v 0.115 c 0.585,0.11 0.617,0.17 0.625,0.977 L 0.649,4.435 C 0.023,3.028 -1.167,0.341 -1.296,0 H -1.4 C -1.523,0.326 -2.48,2.674 -3.173,4.323 -3.28,1.714 -3.288,0.968 -3.282,0.686 -3.273,0.307 -3.121,0.204 -2.518,0.115 V 0 h -1.799 v 0.115 c 0.548,0.076 0.655,0.213 0.7,0.559 0.036,0.284 0.065,0.716 0.24,3.754 0.01,0.239 -0.046,0.497 -0.734,0.571 v 0.114 h 1.439 L -0.995,1.309 0.76,5.113 H 2.147 V 4.999 C 1.483,4.886 1.429,4.823 1.433,4.089 L 1.459,1.092 C 1.467,0.303 1.512,0.228 2.147,0.115 V 0 Z"
               style="fill:#918f90;fill-opacity:1;fill-rule:nonzero;stroke:none"
               id="path146" />
          </g>
          <g
             id="g148"
             transform="translate(270.8023,412.6013)">
            <path
               d="m 0,0 c 0.822,-0.132 1.467,-0.54 1.467,-1.311 0,-0.555 -0.288,-0.959 -0.709,-1.203 -0.398,-0.231 -0.931,-0.32 -1.479,-0.32 h -1.864 v 0.115 c 0.586,0.105 0.648,0.165 0.648,0.825 V 1.37 c 0,0.654 -0.079,0.684 -0.648,0.795 v 0.114 h 2.108 C 0.149,2.279 0.481,2.173 0.746,1.994 1.013,1.804 1.173,1.51 1.173,1.157 1.173,0.435 0.526,0.12 0,0 m -0.739,0.037 c 0.78,0 1.04,0.323 1.04,0.974 0,0.713 -0.36,1.087 -0.94,1.087 -0.141,0 -0.294,-0.012 -0.359,-0.059 -0.096,-0.05 -0.11,-0.157 -0.11,-0.402 v -1.6 z m -0.369,-1.961 c 0,-0.56 0.208,-0.722 0.681,-0.722 0.557,0 0.965,0.416 0.965,1.261 0,0.803 -0.359,1.244 -1.276,1.244 h -0.37 z"
               style="fill:#918f90;fill-opacity:1;fill-rule:nonzero;stroke:none"
               id="path150" />
          </g>
          <g
             id="g152"
             transform="translate(273.0178,409.7669)">
            <path
               d="M 0,0 V 0.115 C 0.602,0.22 0.649,0.281 0.649,0.969 V 4.148 C 0.649,4.852 0.594,4.907 0,4.999 V 5.113 H 2.135 V 4.999 C 1.538,4.902 1.478,4.857 1.478,4.148 V 0.973 c 0,-0.7 0.05,-0.75 0.657,-0.858 V 0 Z"
               style="fill:#918f90;fill-opacity:1;fill-rule:nonzero;stroke:none"
               id="path154" />
          </g>
          <g
             id="g156"
             transform="translate(278.5972,409.7669)">
            <path
               d="M 0,0 V 0.115 C 0.504,0.219 0.551,0.298 0.426,0.663 0.329,0.949 0.172,1.416 -0.017,1.931 H -1.506 C -1.654,1.52 -1.788,1.149 -1.891,0.833 -2.07,0.304 -1.987,0.238 -1.333,0.115 V 0 h -1.685 v 0.115 c 0.492,0.084 0.605,0.169 0.886,0.883 L -0.5,5.183 -0.325,5.209 C 0.168,3.802 0.68,2.409 1.202,1.002 1.466,0.271 1.55,0.22 2.036,0.115 V 0 Z M -0.743,4.028 C -0.989,3.37 -1.189,2.782 -1.418,2.175 h 1.314 z"
               style="fill:#918f90;fill-opacity:1;fill-rule:nonzero;stroke:none"
               id="path158" />
          </g>
          <g
             id="g160"
             transform="translate(284.6157,414.766)">
            <path
               d="m 0,0 c -0.551,-0.092 -0.612,-0.148 -0.612,-0.822 v -2.884 c 0,-0.997 -0.071,-1.577 -0.579,-2.031 -0.326,-0.289 -0.715,-0.416 -0.993,-0.481 l -0.039,0.109 c 0.459,0.206 0.698,0.516 0.742,1.149 0.032,0.431 0.04,0.691 0.04,1.277 v 2.861 c 0,0.683 -0.076,0.733 -0.664,0.822 V 0.114 H 0 Z"
               style="fill:#918f90;fill-opacity:1;fill-rule:nonzero;stroke:none"
               id="path162" />
          </g>
          <g
             id="g164"
             transform="translate(287.9354,410.5048)">
            <path
               d="m 0,0 c -0.467,-0.639 -1.029,-0.832 -1.29,-0.832 -0.964,0 -1.53,0.779 -1.53,1.636 0,0.547 0.204,1.011 0.528,1.354 0.338,0.356 0.739,0.512 1.109,0.512 C -0.463,2.67 -0.005,2.122 0,1.548 0,1.425 -0.008,1.369 -0.039,1.361 -0.256,1.312 -1.227,1.249 -2.076,1.223 c -0.003,-1.07 0.596,-1.51 1.145,-1.51 0.275,0 0.567,0.084 0.863,0.375 z m -1.403,2.464 c -0.324,0 -0.594,-0.307 -0.655,-1.022 0.37,-0.005 0.88,-0.002 1.14,0.024 0.091,0.008 0.142,0.027 0.142,0.115 0,0.442 -0.228,0.883 -0.627,0.883"
               style="fill:#918f90;fill-opacity:1;fill-rule:nonzero;stroke:none"
               id="path166" />
          </g>
          <g
             id="g168"
             transform="translate(290.126,409.7564)">
            <path
               d="m 0,0 c -0.108,-0.055 -0.225,-0.084 -0.28,-0.084 -0.51,0 -0.799,0.285 -0.799,0.918 v 2.258 h -0.484 l -0.016,0.041 0.121,0.191 h 0.379 v 0.682 c 0.22,0.133 0.506,0.355 0.707,0.535 L -0.297,4.533 C -0.305,4.33 -0.326,3.832 -0.32,3.324 H 0.429 C 0.455,3.28 0.434,3.147 0.392,3.092 H -0.32 V 1.021 c 0,-0.604 0.223,-0.725 0.436,-0.725 0.117,0 0.26,0.037 0.352,0.083 L 0.504,0.266 Z"
               style="fill:#918f90;fill-opacity:1;fill-rule:nonzero;stroke:none"
               id="path170" />
          </g>
          <g
             id="g172"
             transform="translate(295.6266,413.785)">
            <path
               d="m 0,0 c -0.158,0.618 -0.485,1.03 -1.13,1.03 -0.513,0 -0.78,-0.364 -0.78,-0.853 0,-0.534 0.297,-0.774 0.951,-1.161 0.65,-0.384 1.286,-0.798 1.286,-1.632 0,-0.877 -0.739,-1.52 -1.741,-1.52 -0.405,0 -0.8,0.098 -1.163,0.202 -0.047,0.172 -0.165,1.018 -0.176,1.151 l 0.12,0.025 c 0.16,-0.613 0.586,-1.202 1.339,-1.202 0.587,0 0.84,0.424 0.84,0.952 0,0.534 -0.333,0.879 -0.888,1.218 -0.667,0.407 -1.267,0.8 -1.267,1.6 0,0.786 0.627,1.396 1.618,1.396 0.48,0 0.815,-0.095 0.982,-0.111 C 0.023,0.81 0.067,0.399 0.123,0.024 Z"
               style="fill:#918f90;fill-opacity:1;fill-rule:nonzero;stroke:none"
               id="path174" />
          </g>
          <g
             id="g176"
             transform="translate(299.6312,410.5048)">
            <path
               d="m 0,0 c -0.467,-0.639 -1.029,-0.832 -1.29,-0.832 -0.964,0 -1.53,0.779 -1.53,1.636 0,0.547 0.204,1.011 0.528,1.354 0.338,0.356 0.739,0.512 1.109,0.512 C -0.463,2.67 -0.005,2.122 0,1.548 0,1.425 -0.008,1.369 -0.039,1.361 -0.256,1.312 -1.227,1.249 -2.076,1.223 c -0.003,-1.07 0.596,-1.51 1.145,-1.51 0.275,0 0.567,0.084 0.863,0.375 z m -1.403,2.464 c -0.324,0 -0.594,-0.307 -0.655,-1.022 0.37,-0.005 0.88,-0.002 1.14,0.024 0.091,0.008 0.142,0.027 0.142,0.115 0,0.442 -0.228,0.883 -0.627,0.883"
               style="fill:#918f90;fill-opacity:1;fill-rule:nonzero;stroke:none"
               id="path178" />
          </g>
          <g
             id="g180"
             transform="translate(302.0649,409.7669)">
            <path
               d="m 0,0 h -1.749 v 0.115 c 0.421,0.07 0.447,0.105 0.447,0.68 v 1.642 c 0,0.442 -0.04,0.49 -0.37,0.584 V 3.115 C -1.282,3.17 -0.881,3.268 -0.516,3.43 -0.524,3.298 -0.534,2.881 -0.54,2.595 -0.346,2.946 0.005,3.408 0.381,3.408 0.63,3.408 0.808,3.251 0.808,3.04 0.808,2.853 0.645,2.599 0.483,2.53 0.389,2.486 0.342,2.501 0.292,2.551 0.158,2.679 0.075,2.773 -0.067,2.773 -0.199,2.773 -0.381,2.671 -0.54,2.355 v -1.56 c 0,-0.569 0.055,-0.593 0.54,-0.68 z"
               style="fill:#918f90;fill-opacity:1;fill-rule:nonzero;stroke:none"
               id="path182" />
          </g>
          <g
             id="g184"
             transform="translate(306.9622,412.9712)">
            <path
               d="m 0,0 c -0.401,-0.089 -0.459,-0.183 -0.649,-0.619 -0.256,-0.585 -0.734,-1.77 -1.098,-2.695 H -1.89 c -0.33,0.874 -0.699,1.859 -1.056,2.735 -0.188,0.447 -0.223,0.493 -0.585,0.579 v 0.11 h 1.663 V 0 c -0.388,-0.091 -0.421,-0.152 -0.308,-0.472 0.209,-0.574 0.467,-1.271 0.652,-1.766 0.217,0.54 0.482,1.245 0.653,1.716 0.126,0.355 0.071,0.44 -0.424,0.522 V 0.11 H 0 Z"
               style="fill:#918f90;fill-opacity:1;fill-rule:nonzero;stroke:none"
               id="path186" />
          </g>
          <g
             id="g188"
             transform="translate(307.4185,409.7669)">
            <path
               d="M 0,0 V 0.115 C 0.442,0.188 0.463,0.228 0.463,0.82 v 1.586 c 0,0.484 -0.027,0.519 -0.382,0.618 V 3.123 C 0.493,3.18 0.89,3.274 1.24,3.414 1.233,3.251 1.225,2.798 1.225,2.474 V 0.822 C 1.225,0.24 1.266,0.199 1.703,0.115 V 0 Z m 0.791,4.206 c -0.227,0 -0.423,0.191 -0.423,0.438 0,0.261 0.196,0.441 0.43,0.441 0.253,0 0.438,-0.18 0.438,-0.441 0,-0.247 -0.185,-0.438 -0.445,-0.438"
               style="fill:#918f90;fill-opacity:1;fill-rule:nonzero;stroke:none"
               id="path190" />
          </g>
          <g
             id="g192"
             transform="translate(312.5646,410.4923)">
            <path
               d="m 0,0 c -0.336,-0.451 -0.819,-0.82 -1.279,-0.82 -0.982,0 -1.535,0.786 -1.535,1.589 0,0.579 0.256,1.07 0.758,1.453 0.447,0.335 0.913,0.461 1.195,0.461 0.24,0 0.5,-0.072 0.644,-0.184 0.083,-0.07 0.128,-0.126 0.128,-0.208 0,-0.166 -0.181,-0.364 -0.295,-0.364 -0.032,0 -0.066,0.011 -0.144,0.081 -0.261,0.242 -0.554,0.347 -0.82,0.347 -0.384,0 -0.732,-0.235 -0.735,-1.147 -0.003,-1.072 0.678,-1.477 1.129,-1.477 0.336,0 0.585,0.076 0.883,0.358 z"
               style="fill:#918f90;fill-opacity:1;fill-rule:nonzero;stroke:none"
               id="path194" />
          </g>
          <g
             id="g196"
             transform="translate(316.009,410.5048)">
            <path
               d="m 0,0 c -0.466,-0.639 -1.028,-0.832 -1.289,-0.832 -0.965,0 -1.53,0.779 -1.53,1.636 0,0.547 0.203,1.011 0.528,1.354 0.338,0.356 0.739,0.512 1.109,0.512 0.72,0 1.177,-0.548 1.183,-1.122 0,-0.123 -0.009,-0.179 -0.039,-0.187 -0.217,-0.049 -1.188,-0.112 -2.037,-0.138 -0.004,-1.07 0.596,-1.51 1.145,-1.51 0.275,0 0.566,0.084 0.862,0.375 z m -1.403,2.464 c -0.324,0 -0.593,-0.307 -0.654,-1.022 0.37,-0.005 0.88,-0.002 1.139,0.024 0.091,0.008 0.143,0.027 0.143,0.115 0,0.442 -0.229,0.883 -0.628,0.883"
               style="fill:#918f90;fill-opacity:1;fill-rule:nonzero;stroke:none"
               id="path198" />
          </g>
          <g
             id="g200"
             transform="translate(323.411,411.9816)">
            <path
               d="m 0,0 c -0.433,-0.102 -0.5,-0.162 -0.5,-0.593 v -0.709 c 0,-0.286 0.013,-0.546 0.06,-0.757 -0.462,-0.092 -1.208,-0.274 -1.807,-0.274 -1.782,0 -2.798,1.062 -2.798,2.637 0,1.809 1.387,2.705 2.962,2.705 0.765,0 1.308,-0.142 1.517,-0.155 0.015,-0.316 0.04,-0.783 0.094,-1.202 l -0.12,-0.027 c -0.121,0.5 -0.338,0.915 -0.876,1.083 -0.238,0.075 -0.498,0.11 -0.804,0.11 -1.127,0 -1.815,-0.838 -1.815,-2.354 0,-1.342 0.474,-2.61 1.891,-2.61 0.2,0 0.487,0.034 0.641,0.128 0.141,0.082 0.222,0.182 0.222,0.581 v 0.75 c 0,0.523 -0.059,0.594 -0.711,0.687 V 0.121 H 0 Z"
               style="fill:#918f90;fill-opacity:1;fill-rule:nonzero;stroke:none"
               id="path202" />
          </g>
          <g
             id="g204"
             transform="translate(325.7631,409.7669)">
            <path
               d="m 0,0 h -1.748 v 0.115 c 0.421,0.07 0.447,0.105 0.447,0.68 v 1.642 c 0,0.442 -0.041,0.49 -0.371,0.584 V 3.115 C -1.282,3.17 -0.881,3.268 -0.516,3.43 -0.524,3.298 -0.533,2.881 -0.539,2.595 -0.345,2.946 0.005,3.408 0.382,3.408 0.63,3.408 0.808,3.251 0.808,3.04 0.808,2.853 0.646,2.599 0.484,2.53 0.39,2.486 0.342,2.501 0.293,2.551 0.16,2.679 0.075,2.773 -0.066,2.773 -0.198,2.773 -0.38,2.671 -0.539,2.355 v -1.56 c 0,-0.569 0.055,-0.593 0.539,-0.68 z"
               style="fill:#918f90;fill-opacity:1;fill-rule:nonzero;stroke:none"
               id="path206" />
          </g>
          <g
             id="g208"
             transform="translate(328.7791,413.1749)">
            <path
               d="m 0,0 c 0.993,0 1.656,-0.791 1.656,-1.696 0,-1.198 -0.859,-1.806 -1.644,-1.806 -1.173,0 -1.725,0.892 -1.725,1.711 C -1.713,-0.643 -0.797,0 0,0 m -0.105,-0.175 c -0.453,0 -0.729,-0.493 -0.729,-1.377 0,-1.044 0.359,-1.779 0.897,-1.779 0.373,0 0.718,0.267 0.718,1.458 0,1.008 -0.333,1.698 -0.886,1.698"
               style="fill:#918f90;fill-opacity:1;fill-rule:nonzero;stroke:none"
               id="path210" />
          </g>
          <g
             id="g212"
             transform="translate(334.7659,409.9533)">
            <path
               d="m 0,0 c -0.497,-0.052 -0.887,-0.173 -1.259,-0.291 0.008,0.159 0.019,0.383 0.019,0.578 -0.349,-0.321 -0.694,-0.565 -1.061,-0.568 -0.57,-0.002 -0.932,0.373 -0.932,1.05 v 1.654 c 0,0.364 -0.064,0.43 -0.269,0.482 L -3.643,2.942 V 3.049 C -3.323,3.065 -2.78,3.12 -2.451,3.183 -2.466,2.949 -2.474,2.628 -2.474,2.054 V 0.948 c 0,-0.595 0.284,-0.764 0.589,-0.764 0.229,0 0.455,0.067 0.645,0.263 v 1.936 c 0,0.397 -0.079,0.459 -0.314,0.515 L -1.74,2.939 v 0.11 c 0.431,0.016 0.974,0.071 1.261,0.134 V 0.67 c 0,-0.417 0.038,-0.477 0.295,-0.524 L 0,0.112 Z"
               style="fill:#918f90;fill-opacity:1;fill-rule:nonzero;stroke:none"
               id="path214" />
          </g>
          <g
             id="g216"
             transform="translate(335.2991,412.9087)">
            <path
               d="M 0,0 C 0.429,0.06 0.828,0.188 1.206,0.345 1.198,0.176 1.187,-0.033 1.187,-0.243 1.33,-0.154 1.63,0.028 1.748,0.102 1.949,0.224 2.104,0.266 2.225,0.266 3.053,0.266 3.52,-0.473 3.52,-1.193 3.52,-2.279 2.603,-3.037 1.676,-3.236 1.482,-3.233 1.3,-3.185 1.187,-3.135 v -1.158 c 0,-0.634 0.061,-0.666 0.578,-0.762 V -5.17 h -1.828 v 0.115 c 0.441,0.096 0.491,0.128 0.491,0.719 v 3.565 c 0,0.536 -0.061,0.569 -0.428,0.677 z m 1.187,-2.658 c 0.169,-0.161 0.475,-0.258 0.74,-0.258 0.619,0 0.806,0.563 0.806,1.301 0,0.95 -0.45,1.414 -0.919,1.414 -0.242,0 -0.448,-0.079 -0.627,-0.209 z"
               style="fill:#918f90;fill-opacity:1;fill-rule:nonzero;stroke:none"
               id="path218" />
          </g>
          <g
             id="g220"
             transform="translate(280.4697,516.5984)">
            <path
               d="M 0,0 C 0.922,0 1.83,-0.055 2.729,-0.144 L 0.86,24.819 H -0.893 L -2.761,-0.138 C -1.853,-0.048 -0.932,0 0,0"
               style="fill:#918f90;fill-opacity:1;fill-rule:nonzero;stroke:none"
               id="path222" />
          </g>
          <g
             id="g224"
             transform="translate(304.7839,506.3143)">
            <path
               d="M 0,0 31.614,6.486 28.922,7.22 -5.229,4.991 C -3.302,3.531 -1.547,1.856 0,0"
               style="fill:#918f90;fill-opacity:1;fill-rule:nonzero;stroke:none"
               id="path226" />
          </g>
          <g
             id="g228"
             transform="translate(261.3548,511.3077)">
            <path
               d="m 0,0 -34.121,2.227 -2.692,-0.735 31.586,-6.48 C -3.681,-3.133 -1.926,-1.459 0,0"
               style="fill:#918f90;fill-opacity:1;fill-rule:nonzero;stroke:none"
               id="path230" />
          </g>
          <g
             id="g232"
             transform="translate(304.6067,465.1535)">
            <path
               d="M 0,0 113.054,18.922 106.45,20.723 7.219,14.829 C 6.139,9.226 3.595,4.147 0,0"
               style="fill:#918f90;fill-opacity:1;fill-rule:nonzero;stroke:none"
               id="path234" />
          </g>
          <g
             id="g236"
             transform="translate(249.1138,479.983)">
            <path
               d="M 0,0 -99.231,5.893 -105.835,4.092 7.219,-14.829 C 3.624,-10.683 1.08,-5.604 0,0"
               style="fill:#918f90;fill-opacity:1;fill-rule:nonzero;stroke:none"
               id="path238" />
          </g>
        </g>
      </g>
    </g>
  </g>
</svg>
